NLM_16/.Xil/Vivado-5600-DESKTOP-I9AU4DJ/hw_ila_data_1/zip_work/waveform.vcd
$date
        2020-Nov-05 15:47:20
$end
$version
        Vivado v2018.2 (64-bit)
$end
$timescale
        1ps
$end
$scope module dut $end
$var reg 16 " design_1_i/system_ila_0/U0/net_slot_0_axis_tdata [15:0] $end
$var reg 1 2 design_1_i/system_ila_0/U0/net_slot_0_axis_tvalid $end
$var reg 1 3 design_1_i/system_ila_0/U0/net_slot_0_axis_tready $end
$var reg 1 4 design_1_i/system_ila_0/U0/net_slot_0_axis_tlast $end
$var reg 16 5 design_1_i/system_ila_0/U0/net_slot_1_axis_tdata [15:0] $end
$var reg 2 E design_1_i/system_ila_0/U0/net_slot_1_axis_tkeep [1:0] $end
$var reg 1 G design_1_i/system_ila_0/U0/net_slot_1_axis_tvalid $end
$var reg 1 H design_1_i/system_ila_0/U0/net_slot_1_axis_tready $end
$var reg 1 I design_1_i/system_ila_0/U0/net_slot_1_axis_tlast $end
$var reg 3 J Interface__i1_s0___AXI_wrap_0_M_AXIS_ [2:0] $end
$var reg 3 M Interface__i1_s1___axi_dma_0_M_AXIS_MM2S_ [2:0] $end
$var reg 3 P T_Channel__i1_s0___AXI_wrap_0_M_AXIS_ [2:0] $end
$var reg 3 S T_Channel__i1_s1___axi_dma_0_M_AXIS_MM2S_ [2:0] $end
$var reg 1 V _TRIGGER $end
$var reg 1 W _WINDOW $end
$var reg 1 X _GAP $end
$upscope $end
$enddefinitions $end
#0
$dumpvars
b0 "
02
13
04
b0 5
b0 E
0G
1H
0I
b0 J
b0 M
b0 P
b0 S
0V
1W
0X
$end
#5
b1001010101111010 5
b11 E
1G
b1 M
b1 S
1V
#6
b1010010101010110 5
#7
b1000111101010010 5
#9
b1010010101010110 5
#10
b1001010101111010 5
#11
b1001000011000000 5
#12
b1001010000111111 5
#13
b1001001000110110 5
#14
b1001101000101010 5
#15
b110010110001101 5
#16
b101100000001010 5
#17
b101011011000011 5
#18
b101000111110001 5
#19
b101110111101000 5
#20
b110110001110001 5
#21
b101011000001110 5
#22
b10111100001101 5
#23
b111000010011110 5
#24
b101111101001001 5
#25
b110110110100011 5
#26
b111011011110010 5
#27
b110010011000001 5
#28
b110111010000011 5
#29
b1000100100011111 5
#30
b1000100100101101 5
#31
b111000001001010 5
#32
b110010110010111 5
#33
b110100011110100 5
#34
b101111000111010 5
#35
b111011010011011 5
#36
b110110000100111 5
#37
b1000100001001111 5
#38
b111001000100010 5
#39
b110100111010001 5
#40
b111110100110000 5
#41
b111100100111000 5
#42
b110110110001001 5
#43
b110111100011110 5
#44
b1000000011111000 5
#45
b101101101011110 5
#46
b110111110100010 5
#47
b101101110100011 5
#48
b110001110110011 5
#49
b110110000110011 5
#50
b1000100001000010 5
#51
b1000010011010011 5
#52
b1010101000110000 5
#53
b1000110110011100 5
#54
b1001000001010101 5
#55
b1000011110111110 5
#56
b111101111010101 5
#57
b111101101001101 5
#58
b111101110110001 5
#59
b1000110010110001 5
#60
b1100101001001101 5
#61
b1101011001000011 5
#62
b101110101110001 5
#63
b101110100010010 5
#64
b110110101100100 5
#65
b111000111010110 5
#66
b111101010010010 5
#67
b110100111100001 5
#68
b111100010010000 5
#69
b101101001011100 5
#70
b101110000110 5
#71
b1000001000101 5
#73
b101110000110 5
#74
b101101001011100 5
#75
b1001000110001001 5
#76
b111111001100100 5
#77
b1000111110100110 5
#79
b111111001100100 5
#80
b1001000110001001 5
#81
b1001001001011010 5
#82
b1010011111000010 5
#83
b1000110001010010 5
#84
b111100011110101 5
#85
b110110001000000 5
#86
b100010010010111 5
#87
b110101100100010 5
#88
b101100101100010 5
#89
b100111110101011 5
#90
b100100000000010 5
#91
b110010010111000 5
#92
b110000001101101 5
#93
b101101101100010 5
#94
b111100110011011 5
#95
b111010001101111 5
#96
b101010110001010 5
#97
b111011100101100 5
#98
b1000011001110100 5
#99
b110100111010010 5
#100
b111001011110101 5
#101
b110001111011011 5
#102
b110011001110001 5
#103
b111111111101010 5
#104
b110100101000011 5
#105
b111111111001100 5
#106
b101101010011011 5
#107
b110010011111011 5
#108
b1000011000010001 5
#109
b1000001010111100 5
#110
b111101001010110 5
#111
b110101111010001 5
#112
b1000110000110011 5
#113
b1000000110110011 5
#114
b101110011111111 5
#115
b110001011100101 5
#116
b111111111001110 5
#117
b101010010111010 5
#118
b101000010001111 5
#119
b1000101110010000 5
#120
b111010110011111 5
#121
b1000100101010001 5
#122
b1001111101101101 5
#123
b1010110010011110 5
#124
b111111111110110 5
#125
b111111110101011 5
#126
b1000001001100100 5
#127
b111111001111000 5
#128
b1001111101101111 5
#129
b1011101110111101 5
#130
b1011000101100101 5
#131
b110001011110110 5
#132
b110010101011100 5
#133
b101110001110000 5
#134
b110010010110001 5
#135
b110100000100111 5
#136
b1000111011001100 5
#137
b111111011010011 5
#138
b110110001010010 5
#139
b110110100010110 5
#140
b101010101101101 5
#141
b1010011111101 5
#143
b101010101101101 5
#144
b110110100010110 5
#145
b1001010011100000 5
#146
b1000110010100100 5
#147
b111110001101001 5
#149
b1000110010100100 5
#150
b1001010011100000 5
#151
b1000001101100001 5
#152
b1001100000110010 5
#153
b1010011010000101 5
#154
b1011101001010011 5
#155
b110100000010100 5
#156
b110000110110111 5
#157
b101111111001101 5
#158
b100101100110000 5
#159
b101100101001000 5
#160
b101011101100101 5
#161
b101101100110010 5
#162
b101010111110010 5
#163
b1000010100010111 5
#164
b110110010000011 5
#165
b1000001000000110 5
#166
b110111011100001 5
#167
b110001001100010 5
#168
b110100111001011 5
#169
b1000011110101110 5
#170
b1001100010011110 5
#171
b111110110101110 5
#172
b101110011101001 5
#173
b1000011110000111 5
#174
b1000010000000100 5
#175
b110101000100001 5
#176
b1000110001110000 5
#177
b111001011000101 5
#178
b101111011101001 5
#179
b111011110101111 5
#180
b1000011110111101 5
#181
b111010111111001 5
#182
b1001010011111001 5
#183
b110110011101001 5
#184
b110111101111001 5
#185
b110000111001011 5
#186
b110000111101010 5
#187
b100010001110001 5
#188
b110101110000010 5
#189
b111100110100111 5
#190
b1000101110011110 5
#191
b111000000001000 5
#192
b1000100001010001 5
#193
b111010110110110 5
#194
b1001000000101101 5
#195
b1001101110011100 5
#196
b1001001101100011 5
#197
b1001100000000100 5
#198
b1000101000000001 5
#199
b1110010011010101 5
#200
b1011111001011001 5
#201
b110100011100110 5
#202
b110111110110101 5
#203
b1000010110110011 5
#204
b111000000110110 5
#205
b100011111001001 5
#206
b100111101101010 5
#207
b110101001110110 5
#208
b101011110000100 5
#209
b110000110110011 5
#210
b1001000000100110 5
#211
b110100011011011 5
#213
b1001000000100110 5
#214
b110000110110011 5
#215
b1001010011100000 5
#216
b1000110010100100 5
#217
b111110001101001 5
#219
b1000110010100100 5
#220
b1001010011100000 5
#221
b1000001101100001 5
#222
b1001100000110010 5
#223
b1010011010000101 5
#224
b1011101001010011 5
#225
b110100000010100 5
#226
b110000110110111 5
#227
b101111111001101 5
#228
b100101100110000 5
#229
b101100101001000 5
#230
b101011101100101 5
#231
b101101100110010 5
#232
b101010111110010 5
#233
b1000010100010111 5
#234
b110110010000011 5
#235
b1000001000000110 5
#236
b110111011100001 5
#237
b110001001100010 5
#238
b110100111001011 5
#239
b1000011110101110 5
#240
b1001100010011110 5
#241
b111110110101110 5
#242
b101110011101001 5
#243
b1000011110000111 5
#244
b1000010000000100 5
#245
b110101000100001 5
#246
b1000110001110000 5
#247
b111001011000101 5
#248
b101111011101001 5
#249
b111011110101111 5
#250
b1000011110111101 5
#251
b111010111111001 5
#252
b1001010011111001 5
#253
b110110011101001 5
#254
b110111101111001 5
#255
b110000111001011 5
#256
b110000111101010 5
#257
b100010001110001 5
#258
b110101110000010 5
#259
b111100110100111 5
#260
b1000101110011110 5
#261
b111000000001000 5
#262
b1000100001010001 5
#263
b111010110110110 5
#264
b1001000000101101 5
#265
b1001101110011100 5
#266
b1001001101100011 5
#267
b1001100000000100 5
#268
b1000101000000001 5
#269
b1110010011010101 5
#270
b1011111001011001 5
#271
b110100011100110 5
#272
b110111110110101 5
#273
b1000010110110011 5
#274
b111000000110110 5
#275
b100011111001001 5
#276
b100111101101010 5
#277
b110101001110110 5
#278
b101011110000100 5
#279
b110000110110011 5
#280
b1001000000100110 5
#281
b110100011011011 5
#283
b1001000000100110 5
#284
b110000110110011 5
#285
b1001000110001001 5
#286
b111111001100100 5
#287
b1000111110100110 5
#289
b111111001100100 5
#290
b1001000110001001 5
#291
b1001001001011010 5
#292
b1010011111000010 5
#293
b1000110001010010 5
#294
b111100011110101 5
#295
b110110001000000 5
#296
b100010010010111 5
#297
b110101100100010 5
#298
b101100101100010 5
#299
b100111110101011 5
#300
b100100000000010 5
#301
b110010010111000 5
#302
b110000001101101 5
#303
b101101101100010 5
#304
b111100110011011 5
#305
b111010001101111 5
#306
b101010110001010 5
#307
b111011100101100 5
#308
b1000011001110100 5
#309
b110100111010010 5
#310
b111001011110101 5
#311
b110001111011011 5
#312
b110011001110001 5
#313
b111111111101010 5
#314
b110100101000011 5
#315
b111111111001100 5
#316
b101101010011011 5
#317
b110010011111011 5
#318
b1000011000010001 5
#319
b1000001010111100 5
#320
b111101001010110 5
#321
b110101111010001 5
#322
b1000110000110011 5
#323
b1000000110110011 5
#324
b101110011111111 5
#325
b110001011100101 5
#326
b111111111001110 5
#327
b101010010111010 5
#328
b101000010001111 5
#329
b1000101110010000 5
#330
b111010110011111 5
#331
b1000100101010001 5
#332
b1001111101101101 5
#333
b1010110010011110 5
#334
b111111111110110 5
#335
b111111110101011 5
#336
b1000001001100100 5
#337
b111111001111000 5
#338
b1001111101101111 5
#339
b1011101110111101 5
#340
b1011000101100101 5
#341
b110001011110110 5
#342
b110010101011100 5
#343
b101110001110000 5
#344
b110010010110001 5
#345
b110100000100111 5
#346
b1000111011001100 5
#347
b111111011010011 5
#348
b110110001010010 5
#349
b110110100010110 5
#350
b101010101101101 5
#351
b1010011111101 5
#353
b101010101101101 5
#354
b110110100010110 5
#355
b1001010101111010 5
#356
b1010010101010110 5
#357
b1000111101010010 5
#359
b1010010101010110 5
#360
b1001010101111010 5
#361
b1001000011000000 5
#362
b1001010000111111 5
#363
b1001001000110110 5
#364
b1001101000101010 5
#365
b110010110001101 5
#366
b101100000001010 5
#367
b101011011000011 5
#368
b101000111110001 5
#369
b101110111101000 5
#370
b110110001110001 5
#371
b101011000001110 5
#372
b10111100001101 5
#373
b111000010011110 5
#374
b101111101001001 5
#375
b110110110100011 5
#376
b111011011110010 5
#377
b110010011000001 5
#378
b110111010000011 5
#379
b1000100100011111 5
#380
b1000100100101101 5
#381
b111000001001010 5
#382
b110010110010111 5
#383
b110100011110100 5
#384
b101111000111010 5
#385
b111011010011011 5
#386
b110110000100111 5
#387
b1000100001001111 5
#388
b111001000100010 5
#389
b110100111010001 5
#390
b111110100110000 5
#391
b111100100111000 5
#392
b110110110001001 5
#393
b110111100011110 5
#394
b1000000011111000 5
#395
b101101101011110 5
#396
b110111110100010 5
#397
b101101110100011 5
#398
b110001110110011 5
#399
b110110000110011 5
#400
b1000100001000010 5
#401
b1000010011010011 5
#402
b1010101000110000 5
#403
b1000110110011100 5
#404
b1001000001010101 5
#405
b1000011110111110 5
#406
b111101111010101 5
#407
b111101101001101 5
#408
b111101110110001 5
#409
b1000110010110001 5
#410
b1100101001001101 5
#411
b1101011001000011 5
#412
b101110101110001 5
#413
b101110100010010 5
#414
b110110101100100 5
#415
b111000111010110 5
#416
b111101010010010 5
#417
b110100111100001 5
#418
b111100010010000 5
#419
b101101001011100 5
#420
b101110000110 5
#421
b1000001000101 5
#423
b101110000110 5
#424
b101101001011100 5
#425
b1001100000000001 5
#426
b1001101101001001 5
#427
b1010001000011011 5
#429
b1001101101001001 5
#430
b1001100000000001 5
#431
b1000110101100001 5
#432
b1010010001110110 5
#433
b1000010111110100 5
#434
b1001010011101010 5
#435
b110111001110110 5
#436
b11011101101111 5
#437
b101101111101111 5
#438
b101011001101001 5
#439
b101110111110001 5
#440
b110010000101101 5
#441
b100001001100000 5
#442
b110110010101111 5
#443
b111001001001100 5
#444
b111000000111010 5
#445
b110100000010111 5
#446
b110000110001011 5
#447
b110111100100111 5
#448
b110010011000001 5
#449
b110001000111011 5
#450
b101111110110110 5
#451
b110100001110001 5
#452
b110110101011000 5
#453
b101101000000101 5
#454
b110010000100101 5
#455
b111001001011011 5
#456
b101111101000011 5
#457
b101111101010100 5
#458
b110001101110101 5
#459
b110100001010101 5
#460
b110011110001011 5
#461
b111110111101000 5
#462
b1000001010111010 5
#463
b111011100001100 5
#464
b111100001000100 5
#465
b111111100011011 5
#466
b101111011011111 5
#467
b101111110010001 5
#468
b100101001001110 5
#469
b110000001100011 5
#470
b111001010010111 5
#471
b111110000101001 5
#472
b1001101110010101 5
#473
b1011000010001111 5
#474
b1001000111011011 5
#475
b1001011110100010 5
#476
b111111010001011 5
#477
b1000111000111111 5
#478
b1001010010010101 5
#479
b1001001010010100 5
#480
b1010101010101111 5
#481
b1100101010111100 5
#482
b1000010100101100 5
#483
b110101111000010 5
#484
b110011000110100 5
#485
b111100110100000 5
#486
b101001101101101 5
#487
b110111011101001 5
#488
b101000011101010 5
#489
b1001101000001 5
#490
b11111100000110 5
#491
b1100010000000 5
#493
b11111100000110 5
#494
b1001101000001 5
#495
b1001100010000001 5
#496
b1010010111111010 5
#497
b111011000100111 5
#499
b1000110111110101 "
12
b1010010111111010 5
b1 J
b1 P
#500
b1000101110100000 "
b1001100010000001 5
#501
b1001000011010000 "
b1001011100001101 5
#502
b1001000101001000 "
b1000100000010100 5
#503
b1001010100000100 "
b1000111100010010 5
#504
b1001101100101110 "
b1000000011011101 5
#505
b1010101110110010 "
b1000010010101011 5
#506
b110110100100011 "
b100101011100111 5
#507
b101100100011001 "
b11111111111010 5
#508
b101101001001010 "
b111001101101111 5
#509
b101010011111111 "
b111001111010100 5
#510
b101100110110110 "
b100100001011000 5
#511
b101011100110001 "
b101010011000000 5
#512
b101101100011110 "
b111100000011111 5
#513
b101111010010001 "
b111100100100001 5
#514
b111000101011000 "
b110111101110001 5
#515
b110110001110011 "
b1000000010000110 5
#516
b111001000001110 "
b1000000011000010 5
#517
b111000110001001 "
b111001111111110 5
#518
b111000100111001 "
b110010000000010 5
#519
b111000001100011 "
b110111100001011 5
#520
b111110000111000 "
b1000001110100101 5
#521
b111110110111101 "
b110101111011101 5
#522
b111100001101010 "
b110010101010011 5
#523
b110110000000111 "
b111001001110101 5
#524
b111011101111010 "
b101111000010111 5
#525
b111010011111111 "
b110000110111110 5
#526
b111001010010001 "
b110110011110100 5
#527
b111100100010110 "
b110000101101100 5
#528
b111010010011000 "
b110001110101010 5
#529
b111010111111101 "
b110110000100101 5
#530
b111011100111000 "
b111001101101101 5
#531
b111101100001000 "
b111001011100011 5
#532
b111100000100011 "
b110010100010110 5
#533
b1000000111101001 "
b110101001110101 5
#534
b111000011111101 "
b110111011010110 5
#535
b110111100111010 "
b111110100010110 5
#536
b110011100110010 "
b110001011111100 5
#537
b110011111001010 "
b110010011110111 5
#538
b101101011010010 "
b111001011000010 5
#539
b110110100001001 "
b110000010000100 5
#540
b111100011111101 "
b1000000001101011 5
#541
b1000001111000100 "
b1000101001111001 5
#542
b1000000101111101 "
b111010001111011 5
#543
b1000101100010111 "
b111111100100100 5
#544
b1000011110000010 "
b1010000100011111 5
#545
b1000101110110011 "
b111111010001011 5
#546
b1000110011001001 "
b111100000000101 5
#547
b1000110000100101 "
b111101101010110 5
#548
b1000101110011101 "
b1000111000011100 5
#549
b1001000010011101 "
b111000100010000 5
#550
b1110011000111111 "
b1001110110011010 5
#551
b1100100100110001 "
b1011011000111010 5
#552
b110110111000111 "
b1100100010100101 5
#553
b110111100010111 "
b101010011110101 5
#554
b110111101011101 "
b110011111101101 5
#555
b110110111110100 "
b100110011111010 5
#556
b110001100111111 "
b111001111000100 5
#557
b110010001001001 "
b100100100100011 5
#558
b110011111011111 "
b101101011100 5
#559
b110100110011000 "
b11100110010110 5
#560
b110100100111000 "
b1001100011011 5
#561
b1000001010011110 "
b1011101110110 5
#562
b110110010001001 "
#563
b0 "
02
b1001100011011 5
b0 J
b0 P
#564
b11100110010110 5
#565
b1001111000010111 5
#566
b1001000100101010 5
#567
b1000101000111001 5
#569
b1000111010100011 "
12
b1001000100101010 5
b1 J
b1 P
#570
b1000110010111000 "
b1001111000010111 5
#571
b1001010001011111 "
b1000100110001001 5
#572
b1001001011100011 "
b1000111111110011 5
#573
b1001001010000100 "
b1001100010001010 5
#574
b1001001101100111 "
b1001110000001000 5
#575
b1000111101011000 "
b110100010011010 5
#576
b110111000111110 "
b101011000110000 5
#577
b101001110001110 "
b110110101010001 5
#578
b101100100010000 "
b100111000101101 5
#579
b101011110100101 "
b100000110111101 5
#580
b101100100111111 "
b110010110000101 5
#581
b101010111011101 "
b111001010110111 5
#582
b101110011010011 "
b110011100001111 5
#583
b110000010011000 "
b111101101100001 5
#584
b110010010110111 "
b1000001000011101 5
#585
b110111001100000 "
b111101000110001 5
#586
b111000011010110 "
b110110100110101 5
#587
b110101110011101 "
b101100110001110 5
#588
b111000000110011 "
b110110001001010 5
#589
b111010011000111 "
b111001100001101 5
#590
b111000100011011 "
b101011100111100 5
#591
b111001101110111 "
b1001000100000100 5
#592
b111000001010100 "
b110000111000010 5
#593
b110111001100010 "
b111011101100010 5
#594
b111010000111111 "
b111010001100011 5
#595
b111000000110100 "
b110100111101101 5
#596
b111001110000101 "
b110011101111010 5
#597
b110111000100010 "
b111011110101011 5
#598
b110111001101010 "
b110011011110000 5
#599
b111011101010000 "
b111001111100001 5
#600
b111011101011110 "
b101100110000011 5
#601
b111100111000010 "
b111100000011001 5
#602
b111101010101001 "
b111010010110111 5
#603
b111110101000110 "
b101001011110001 5
#604
b111100011001001 "
b110110010110110 5
#605
b110110101001001 "
b101010011010010 5
#606
b110100011001100 "
b1000000000010001 5
#607
b110100110111010 "
b101101011110011 5
#608
b101110110101100 "
b11110101010011 5
#609
b110010000001110 "
b1000000011000110 5
#610
b111100010000101 "
b110100111101010 5
#611
b111111011110000 "
b111011011011010 5
#612
b1000100101000001 "
b1001111110100001 5
#613
b1000111011110101 "
b1000011010101011 5
#614
b1001010010111101 "
b111011111010011 5
#615
b1001000001101010 "
b1000110100100010 5
#616
b1000110100001110 "
b111110100100010 5
#617
b1000100010111000 "
b1001100000111010 5
#618
b1000101111111101 "
b110111011011010 5
#619
b1001011101001111 "
b1001010110011000 5
#620
b1011011111111100 "
b111000111110010 5
#621
b1100010001010101 "
b1001110101110000 5
#622
b111010011000100 "
b1110111011011010 5
#623
b110101101110110 "
b1010011010011011 5
#624
b110110100000010 "
b110000010110001 5
#625
b110101010000101 "
b110101111011111 5
#626
b110110001100101 "
b100011110011100 5
#627
b111000100100111 "
b10100000011001 5
#628
b111000101000000 "
b10000110000000 5
#629
b110101000000101 "
b1001010100111 5
#630
b111001011011011 "
b1010110000010 5
#631
b101011111110001 "
b10100111001 5
#632
b1100011001110 "
#633
b0 "
02
b1010110000010 5
b0 J
b0 P
#634
b1001010100111 5
#635
b111111111011100 5
#636
b1011001001101111 5
#637
b1001011000011001 5
#639
b1001001101001011 "
12
b1011001001101111 5
b1 J
b1 P
#640
b1001010101001110 "
b111111111011100 5
#641
b1001000100110110 "
b111000100001101 5
#642
b1001011000110100 "
b1000100011100011 5
#643
b1001011101111111 "
b1001110001001011 5
#644
b1001010001010010 "
b1000001000101110 5
#645
b1000111100100001 "
b110000101101011 5
#646
b110101110000111 "
b11101010000001 5
#647
b101011000110010 "
b111001000000100 5
#648
b101100010100110 "
b110001010101011 5
#649
b101011011111000 "
b100101011000011 5
#650
b101011111001001 "
b110100000010000 5
#651
b101111000100101 "
b101101100001001 5
#652
b101111000100000 "
b110000101111001 5
#653
b101001011101011 "
b101100111000011 5
#654
b110110110101011 "
b111010010001000 5
#655
b110101111111100 "
b110010111110100 5
#656
b110111101101111 "
b111001011100011 5
#657
b110111101110010 "
b110001010100001 5
#658
b110110110110111 "
b111101101101010 5
#659
b111001100010111 "
b111111110000000 5
#660
b111011001111101 "
b110101100111000 5
#661
b111010101110011 "
b101110001001100 5
#662
b111001000001110 "
b1001101001000000 5
#663
b110100111001101 "
b101100110101001 5
#664
b110101010110101 "
b1000011000001101 5
#665
b110100010111111 "
b1011011011011110 5
#666
b110111101100011 "
b1000100000100011 5
#667
b110110111011101 "
b1000011101001011 5
#668
b111001011100001 "
b1010111010111110 5
#669
b111000101000100 "
b1001011100101111 5
#670
b110111100010010 "
b111111100011000 5
#671
b111001011111101 "
b111000011000011 5
#672
b111011100100101 "
b110110110011000 5
#673
b111010001100111 "
b101100000111111 5
#674
b111011010110000 "
b1000001010110001 5
#675
b111000110011101 "
b110111100101110 5
#676
b110011000101100 "
b101110110011110 5
#677
b110100111010101 "
b110100011101001 5
#678
b110001010100001 "
b101011100111100 5
#679
b110010010010100 "
b110101100001001 5
#680
b110110110000110 "
b1001000000000000 5
#681
b111111100000111 "
b1001001010010110 5
#682
b1000100001010100 "
b1001010010110100 5
#683
b1001010010110011 "
b111010011010010 5
#684
b1000111000100111 "
b1000100110111110 5
#685
b1000111001010101 "
b111010100000001 5
#686
b1000101000111011 "
b1001011001010000 5
#687
b1000100100000011 "
b111000101010111 5
#688
b1000010101100011 "
b111111001010010 5
#689
b1000010111101001 "
b111011100010111 5
#690
b1001101010010010 "
b1000011010010101 5
#691
b1101000110110011 "
b1000011111101001 5
#692
b1101001110101100 "
b1010111011011011 5
#693
b110001101010010 "
b1101011111100000 5
#694
b110100011101110 "
b110110000000010 5
#695
b110101000100101 "
b100010110100110 5
#696
b110110110110001 "
b110110110000 5
#697
b111000001010111 "
b1101110010100 5
#698
b110011110000010 "
b11111000000011 5
#699
b111001111110101 "
b11111010111111 5
#700
b101001100111100 "
b10101111000111 5
#701
b1000000000001 "
b111010100 5
#702
b10000101101111 "
#703
b0 "
02
b10101111000111 5
b0 J
b0 P
#704
b11111010111111 5
#705
b111001011100011 5
#706
b1010001001101101 5
#707
b1001001000001100 5
#709
b1001100100011000 "
12
b1010001001101101 5
b1 J
b1 P
#710
b1001000110010100 "
b111001011100011 5
#711
b1001100011001100 "
b111110100101001 5
#712
b1001000111101011 "
b1010100000011100 5
#713
b1001010110111101 "
b1001011010011111 5
#714
b1001001000101110 "
b111010100111001 5
#715
b1000111101101001 "
b1000000100101010 5
#716
b111010111011000 "
b100001010010010 5
#717
b101000000010010 "
b100010110001101 5
#718
b101101010000101 "
b101000111100011 5
#719
b101100001001010 "
b11111111100110 5
#720
b101110000000110 "
b100101010101111 5
#721
b101111000010011 "
b110110111000001 5
#722
b101001001000010 "
b111100111000100 5
#723
b110010100101111 "
b110100101010101 5
#724
b110111001000000 "
b110100111101000 5
#725
b111000111010101 "
b101011100100101 5
#726
b110111111010000 "
b110000010010001 5
#727
b110101110000100 "
b110001000100100 5
#728
b111000011110001 "
b110110000001101 5
#729
b110101111100110 "
b111001010011001 5
#730
b110110000000111 "
b111000111001110 5
#731
b110101111110100 "
b111001111110111 5
#732
b110101011110100 "
b111010001110101 5
#733
b110110101110101 "
b111111011011011 5
#734
b110101100111011 "
b111000000100111 5
#735
b110101010011000 "
b1000111011111011 5
#736
b110101000101011 "
b1001001010101011 5
#737
b110101110100001 "
b1001000001101101 5
#738
b110101010111100 "
b1001010000111110 5
#739
b110110100110111 "
b1011111010100001 5
#740
b111000100111010 "
b1100001011100100 5
#741
b111010010100101 "
b1011101100010110 5
#742
b111001100100111 "
b111011011101010 5
#743
b111001111100101 "
b101100000010010 5
#744
b110111111101010 "
b111001000011100 5
#745
b111010010111100 "
b101100111011110 5
#746
b110110110100101 "
b101010001101100 5
#747
b110001100110011 "
b110011001110110 5
#748
b110010011010001 "
b110001110110000 5
#749
b110000001111010 "
b110100110111000 5
#750
b110101010010011 "
b1000100011011001 5
#751
b111100010101110 "
b1010001000001011 5
#752
b1000010100010100 "
b1000010001010001 5
#753
b1000111110010011 "
b111011110100010 5
#754
b1001100011100111 "
b110101110000110 5
#755
b1000101100101011 "
b1000100000101011 5
#756
b1000110011110110 "
b111010101111100 5
#757
b1000011011000110 "
b1000111011101110 5
#758
b1000001011110010 "
b1000011010100010 5
#759
b1000001000010101 "
b110111011100111 5
#760
b1000111110111111 "
b111000011111010 5
#761
b1010010001010110 "
b1000110000010010 5
#762
b1101001100110110 "
b1011101001111111 5
#763
b1000011101110100 "
b1110000111110011 5
#764
b110011010111000 "
b1001010101100001 5
#765
b110011010000101 "
b1011011001000 5
#766
b110111010010010 "
b11001100 5
#767
b110011100011000 "
b10110001101001 5
#768
b111000010010110 "
b1100011010011 5
#769
b101000110100110 "
b10000111001101 5
#770
b1001111000001 "
b10000011000011 5
#771
b10010110011111 "
b0 5
#772
b1010111000001 "
#773
b0 "
02
b10000011000011 5
b0 J
b0 P
#774
b10000111001101 5
#775
b101011110011001 5
#776
b110101101001100 5
#777
b1011100100100111 5
#779
b1001011100110111 "
12
b110101101001100 5
b1 J
b1 P
#780
b1001010011101011 "
b101011110011001 5
#781
b1001100000011111 "
b111011101111111 5
#782
b1001011010100001 "
b1001010111111110 5
#783
b1000110100111101 "
b1000011001010010 5
#784
b1001001001000100 "
b111111010100101 5
#785
b1001001000000111 "
b111100010010001 5
#786
b111100011101011 "
b101010111011011 5
#787
b101010110000011 "
b11110111010010 5
#788
b101010100100110 "
b101000011001001 5
#789
b101111011100110 "
b100100110111100 5
#790
b101111011100010 "
b101110001110101 5
#791
b101010100000010 "
b110001101101010 5
#792
b101111011001000 "
b101100111101111 5
#793
b110101100011110 "
b111011011101100 5
#794
b111000011011100 "
b101001100110011 5
#795
b111000111101011 "
b101101110100111 5
#796
b111001110000000 "
b111001001001010 5
#797
b111000110010011 "
b110001101011100 5
#798
b111000100100001 "
b111001010000101 5
#799
b110110000101111 "
b101100101001111 5
#800
b111000000101110 "
b111000110111110 5
#801
b111100000001100 "
b110101010011010 5
#802
b110101110111011 "
b110111100100101 5
#803
b110110101011000 "
b1001010100000011 5
#804
b110111010111011 "
b1000011000111010 5
#805
b110101001010000 "
b1000101000001010 5
#806
b110100011010110 "
b111110101000011 5
#807
b110101101100000 "
b1000111000100110 5
#808
b110100111100011 "
b1010110110110111 5
#809
b110101000010011 "
b1001111100001010 5
#810
b110111010111101 "
b1001111000011010 5
#811
b111001000100010 "
b1100001000011101 5
#812
b111000011010010 "
b1001100001011110 5
#813
b111000110000011 "
b110111111101110 5
#814
b111000111101100 "
b101011001001000 5
#815
b110111101011011 "
b101101111011111 5
#816
b110110100101100 "
b111001011000100 5
#817
b110100001011111 "
b100111110101100 5
#818
b110001101010011 "
b101011010000101 5
#819
b110100001000111 "
b110011001110100 5
#820
b110011000110110 "
b111011101100000 5
#821
b111100011011101 "
b1000011011010001 5
#822
b1000010001100000 "
b1010010000011000 5
#823
b1000011000111101 "
b1000101000010001 5
#824
b1000101101000001 "
b1000001001101001 5
#825
b1001000110110000 "
b1010000100101001 5
#826
b1000001010111100 "
b111101110010110 5
#827
b1000011000101000 "
b1001011111111101 5
#828
b111111100000001 "
b111001100101010 5
#829
b1000010011111010 "
b1001000001011110 5
#830
b111110111011000 "
b1000111010110111 5
#831
b1001001011000000 "
b111000001001010 5
#832
b1100000100011010 "
b110110011100001 5
#833
b1101001111011011 "
b1010010010111100 5
#834
b101111100010111 "
b11000010111011 5
#835
b110101111110100 "
b1001101101011 5
#836
b110000101011110 "
b1001011011111 5
#837
b110111110100111 "
b10000110100001 5
#838
b100111110100000 "
b10000010111000 5
#839
b1011000010001 "
b0 5
#840
b10100110100100 "
b10001000101000 5
#841
b1100001111101 "
b10000001010000 5
#842
b1100101101010 "
#843
b0 "
02
b10001000101000 5
b0 J
b0 P
#844
b0 5
#845
b11001101010001 5
#846
b101011001011011 5
#847
b1000111100001100 5
#849
b1001011000100101 "
12
b101011001011011 5
b1 J
b1 P
#850
b1001010111011100 "
b11001101010001 5
#851
b1001010100000111 "
b110100101111111 5
#852
b1001000101101011 "
b1001110100100001 5
#853
b1001000001001110 "
b1000100111010101 5
#854
b1001000100010110 "
b1001011101000011 5
#855
b1001000001111001 "
b110000110000000 5
#856
b111000010110000 "
b11000001101100 5
#857
b101100001011000 "
b101100101011001 5
#858
b101110011011011 "
b11010110101011 5
#859
b101010010010010 "
b100101010110110 5
#860
b101011010110100 "
b100110110111110 5
#861
b110000000011000 "
b101000101011100 5
#862
b110011001100110 "
b101011110100111 5
#863
b110101010000001 "
b110101110011000 5
#864
b110110010101011 "
b101000001000000 5
#865
b111001010101100 "
b110110001101100 5
#866
b110111100100101 "
b111000001101001 5
#867
b110111010011110 "
b110000011001010 5
#868
b110101110001011 "
b101111111000101 5
#869
b110101001111001 "
b111100010111000 5
#870
b110101100101000 "
b110100010001011 5
#871
b110101100010010 "
b111010000100101 5
#872
b111101111000001 "
b111011111000011 5
#873
b110011110101101 "
b111001010011111 5
#874
b110111111111110 "
b111001011111101 5
#875
b111010111010100 "
b111111101100100 5
#876
b111000001111110 "
b1000010100001100 5
#877
b110111011001101 "
b111101010000011 5
#878
b111010101001001 "
b1011011111001000 5
#879
b111000101100111 "
b1011001111011110 5
#880
b111000000001010 "
b1010110010001010 5
#881
b110110110001010 "
b1001100100110111 5
#882
b110111101100100 "
b1011111000011011 5
#883
b111000000110011 "
b1100001101101000 5
#884
b110101010011001 "
b1001100110100110 5
#885
b110110111110001 "
b101100000000111 5
#886
b110011000001001 "
b101110100100111 5
#887
b110100110100110 "
b101111000000001 5
#888
b110000011110100 "
b101010100010001 5
#889
b101110111011111 "
b110011100110111 5
#890
b111000010101111 "
b1010000110011001 5
#891
b111101011101000 "
b1000111011001010 5
